Categories:Development
License:GPL-3.0-only
Web Site:https://termux.com
Source Code:https://github.com/termux/termux-app
Issue Tracker:https://github.com/termux/termux-app/issues
Changelog:https://github.com/termux/termux-app/releases
Donate:https://termux.com/donate.html
Bitcoin:1BXS5qPhJzhr5iK5nmNDSmoLDfB6VmN5hv

Auto Name:Termux
Summary:Terminal emulator with packages
Description:
Termux combines powerful terminal emulation with an extensive Linux package
collection.

* Enjoy the bash and zsh shells.
* Edit files with nano and vim.
* Access servers over ssh.
* Compile code with gcc and clang.
* Use the python console as a pocket calculator.
* Check out projects with git and subversion.
* Run text-based games with frotz.

At first start a small base system is downloaded - desired packages can then be
installed using the apt package manager known from the Debian and Ubuntu Linux
distributions. Access the built-in help by long-pressing anywhere on the
terminal and selecting the Help menu option to learn more.

Read help online: [https://termux.com/help]

Google+ Community: [https://termux.com/community]
.

Repo Type:git
Repo:https://github.com/termux/termux-app

Build:0.16,16
    commit=dea7c9d2ceb3060c
    subdir=app
    gradle=yes
    scandelete=app/src/main/jniLibs
    build=cd .. && \
        ./build-jnilibs.sh

Build:0.17,17
    commit=v0.17
    subdir=app
    gradle=yes
    scandelete=app/src/main/jniLibs
    build=cd .. && \
        ./build-jnilibs.sh

Build:0.18,18
    commit=v0.18
    subdir=app
    gradle=yes
    scandelete=app/src/main/jniLibs
    build=cd .. && \
        ./build-jnilibs.sh

Build:0.19,19
    commit=v0.19
    subdir=app
    gradle=yes
    scandelete=app/src/main/jniLibs
    build=cd .. && \
        ./build-jnilibs.sh

Build:0.20,20
    commit=v0.20
    subdir=app
    gradle=yes
    scandelete=app/src/main/jniLibs
    build=cd .. && \
        ./build-jnilibs.sh

Build:0.21,21
    commit=v0.21
    subdir=app
    gradle=yes
    scandelete=app/src/main/jniLibs
    build=cd .. && \
        ./build-jnilibs.sh

Build:0.22,22
    commit=v0.22
    subdir=app
    gradle=yes
    scandelete=app/src/main/jniLibs
    build=cd .. && \
        ./build-jnilibs.sh

Build:0.23,23
    commit=v0.23
    subdir=app
    gradle=yes
    scandelete=app/src/main/jniLibs
    build=cd .. && \
        ./build-jnilibs.sh

Build:0.24,24
    commit=v0.24
    subdir=app
    gradle=yes
    scandelete=app/src/main/jniLibs
    build=cd .. && \
        ./build-jnilibs.sh

Build:0.25,25
    commit=v0.25
    subdir=app
    gradle=yes
    scandelete=app/src/main/jniLibs
    build=cd .. && \
        ./build-jnilibs.sh

Build:0.26,26
    commit=v0.26
    subdir=app
    gradle=yes
    scandelete=app/src/main/jniLibs
    build=cd .. && \
        ./build-jnilibs.sh

Build:0.27,27
    commit=v0.27
    subdir=app
    gradle=yes
    scandelete=app/src/main/jniLibs
    build=cd .. && \
        ./build-jnilibs.sh

Build:0.28,28
    commit=v0.28
    subdir=app
    gradle=yes
    build=cd .. && \
        ./build-jnilibs.sh

Build:0.29,29
    commit=v0.29
    subdir=app
    gradle=yes
    build=cd .. && \
        ./build-jnilibs.sh

Build:0.30,30
    commit=v0.30
    subdir=app
    gradle=yes
    build=cd .. && \
        ./build-jnilibs.sh

Build:0.31,31
    commit=v0.31
    subdir=app
    gradle=yes
    build=cd .. && \
        ./build-jnilibs.sh

Build:0.32,32
    commit=v0.32
    subdir=app
    gradle=yes
    build=cd .. && \
        ./build-jnilibs.sh

Build:0.33,33
    commit=v0.33
    subdir=app
    gradle=yes
    build=cd .. && \
        ./build-jnilibs.sh

Build:0.34,34
    commit=v0.34
    subdir=app
    gradle=yes
    build=cd .. && \
        ./build-jnilibs.sh

Build:0.35,36
    commit=v0.35
    subdir=app
    gradle=yes

Build:0.37,37
    commit=v0.37
    subdir=app
    gradle=yes

Build:0.38,38
    commit=v0.38
    subdir=app
    gradle=yes

Build:0.39,39
    commit=v0.39
    subdir=app
    gradle=yes

Build:0.40,40
    commit=v0.40
    subdir=app
    gradle=yes

Build:0.41,41
    commit=v0.41
    subdir=app
    gradle=yes

Build:0.42,42
    commit=v0.42
    subdir=app
    gradle=yes

Build:0.44,44
    commit=v0.44
    subdir=app
    gradle=yes

Build:0.45,45
    commit=v0.45
    subdir=app
    gradle=yes

Build:0.46,46
    commit=v0.46
    subdir=app
    gradle=yes

Build:0.47,47
    commit=v0.47
    subdir=app
    gradle=yes

Build:0.48,48
    commit=v0.48
    subdir=app
    gradle=yes

Build:0.49,49
    disable=fdroid/fdroidserver#288
    commit=v0.49
    subdir=app
    gradle=yes

Build:0.50,50
    commit=v0.50
    subdir=app
    gradle=yes

Build:0.51,51
    commit=v0.51
    subdir=app
    gradle=yes

Build:0.52,52
    commit=v0.52
    subdir=app
    gradle=yes

Build:0.53,53
    commit=v0.53
    subdir=app
    gradle=yes

Build:0.54,54
    commit=v0.54
    subdir=app
    gradle=yes

Build:0.55,55
    commit=v0.55
    subdir=app
    gradle=yes

Build:0.56,56
    commit=v0.56
    subdir=app
    gradle=yes

Build:0.57,57
    commit=v0.57
    subdir=app
    gradle=yes

Build:0.59,59
    commit=v0.59
    subdir=app
    gradle=yes

Build:0.60,60
    commit=v0.60
    subdir=app
    gradle=yes

Build:0.61,61
    commit=v0.61
    subdir=app
    gradle=yes

Auto Update Mode:Version v%v
Update Check Mode:Tags
Current Version:0.61
Current Version Code:61
